…
This is a dirty dataset and we either need to drop the rows with NaN
values or fill in the gaps by leveraging the data in the dataset to
estimate what those values could have been. We will choose the latter
and try to estimate those values and fill in the gaps rather than lose
observations.

## Cleaning Names

``` r
titanic %>% 
  mutate(
    name = str_replace(name, '(.*, )|(\\..*)', ''))
```

    ## # A tibble: 1,309 x 12
    ##    passenger_id survived pclass name  gender   age sib_sp parch ticket
    ##           <dbl> <fct>    <fct>  <chr> <fct>  <dbl>  <dbl> <dbl> <chr> 
    ##  1            1 Died     3rd    Mr. … male      22      1     0 A/5 2…
    ##  2            2 Survived 1st    Mrs.… female    38      1     0 PC 17…
    ##  3            3 Survived 3rd    Miss… female    26      0     0 STON/…
    ##  4            4 Survived 1st    Mrs.… female    35      1     0 113803
    ##  5            5 Died     3rd    Mr. … male      35      0     0 373450
    ##  6            6 Died     3rd    Mr. … male      NA      0     0 330877
    ##  7            7 Died     1st    Mr. … male      54      0     0 17463 
    ##  8            8 Died     3rd    Mast… male       2      3     1 349909
    ##  9            9 Survived 3rd    Mrs.… female    27      0     2 347742
    ## 10           10 Survived 2nd    Mrs.… female    14      1     0 237736
    ## # … with 1,299 more rows, and 3 more variables: fare <dbl>, cabin <chr>,
    ## #   embarked <fct>
…
